{
  "balance_updates" : [
    {
      "change" : "-2858",
      "contract" : "tz1gg5bjopPcr9agjamyu9BbXKLibNc2rbAq",
      "kind" : "contract"
      },
      {
        "category" : "fees",
        "change" : "2858",
        "cycle" : 168,
        "delegate" : "tz1NpWrAyDL9k2Lmnyxcgr9xuJakbBxdq7FB",
        "kind" : "freezer"
     }
  ],
  "internal_operation_results" : [
     {
        "kind" : "delegation",
        "nonce" : 0,
        "result" : {
           "consumed_gas" : "10000",
           "status" : "applied"
        },
        "source" : "KT1GnU17gpXcGDP4pkQkwaJsQ1oEDdDruQWQ"
     }
  ],
  "operation_result" : {
     "consumed_gas" : "15722",
     "status" : "applied",
     "storage" : {
       "bytes" : "00e6bde674e512f2fd5219d793767e8a9a03887583"
     },
     "storage_size" : "232"
  }
}
