{ "proof_of_work_nonce_size": 8, "nonce_length": 32,
  "max_revelations_per_block": 32, "max_operation_data_length": 16384,
  "max_proposals_per_delegate": 20, "preserved_cycles": 5,
  "blocks_per_cycle": 128, "blocks_per_commitment": 32,
  "blocks_per_roll_snapshot": 8, "blocks_per_voting_period": 2816,
  "time_between_blocks": [ "20" ], "endorsers_per_block": 32,
  "hard_gas_limit_per_operation": "800000",
  "hard_gas_limit_per_block": "8000000",
  "proof_of_work_threshold": "70368744177663",
  "tokens_per_roll": "8000000000", "michelson_maximum_type_size": 1000,
  "seed_nonce_revelation_tip": "125000", "origination_size": 257,
  "block_security_deposit": "512000000",
  "endorsement_security_deposit": "64000000", "block_reward": "16000000",
  "endorsement_reward": "2000000", "cost_per_byte": "1000",
  "hard_storage_limit_per_operation": "600000",
  "test_chain_duration": "43200", "quorum_min": 3000, "quorum_max": 7000,
  "min_proposal_quorum": 500, "initial_endorsers": 24,
  "delay_per_missing_endorsement": "2" }
